…
``` r
# Case 3:
str_replace("1/2 oz of 1/2 tequila", " ?1/2", ".5")
```

    ## [1] ".5 oz of 1/2 tequila"

Now check the format of the data

``` r
# View(cocktails_parsed) or
cocktails_parsed
```

    ## # A tibble: 2,542 x 7
    ##    name     category   row_id ingredient_numb… ingredient measure measure_number
    ##    <chr>    <chr>       <dbl>            <dbl> <chr>      <chr>            <dbl>
    ##  1 Gauguin  Cocktail …      1                1 light rum  2 oz              2   
    ##  2 Gauguin  Cocktail …      1                3 lemon jui… 1 oz              1   
    ##  3 Gauguin  Cocktail …      1                4 lime juice 1 oz              1   
    ##  4 Fort La… Cocktail …      2                1 light rum  1.5 oz            1.5 
    ##  5 Fort La… Cocktail …      2                2 sweet ver… .5 oz             0.5 
    ##  6 Fort La… Cocktail …      2                3 orange ju… .25 oz            0.25
    ##  7 Fort La… Cocktail …      2                4 lime juice .25 oz            0.25
    ##  8 Cuban C… Cocktail …      4                1 lime juice .5 oz             0.5 
    ##  9 Cuban C… Cocktail …      4                2 powdered … .5 oz             0.5 
    ## 10 Cuban C… Cocktail …      4                3 light rum  2 oz              2   
    ## # … with 2,532 more rows
…
The `clean_names` command from the `janitor` package is then called to
make sure that everthing is written consistently.  
Finally, any `NA` values are thrown away.

Then our new data look like this

``` r
cocktails_df
```

    ## # A tibble: 937 x 41
    ##    name  light_rum lemon_juice lime_juice sweet_vermouth orange_juice
    ##    <chr>     <dbl>       <dbl>      <dbl>          <dbl>        <dbl>
    ##  1 Gaug…      2           1          1               0           0   
    ##  2 Fort…      1.5         0          0.25            0.5         0.25
    ##  3 Cuba…      2           0          0.5             0           0   
    ##  4 Cool…      0           0          0               0           1   
    ##  5 John…      0           1          0               0           0   
    ##  6 Cher…      1.25        0          0               0           0   
    ##  7 Casa…      2           0          1.5             0           0   
    ##  8 Cari…      0.5         0          0               0           0   
    ##  9 Ambe…      0           0.25       0               0           0   
    ## 10 The …      0           0.5        0               0           0   
    ## # … with 927 more rows, and 35 more variables: powdered_sugar <dbl>,
    ## #   dark_rum <dbl>, cranberry_juice <dbl>, pineapple_juice <dbl>,
    ## #   bourbon_whiskey <dbl>, simple_syrup <dbl>, cherry_flavored_brandy <dbl>,
    ## #   light_cream <dbl>, triple_sec <dbl>, maraschino <dbl>, amaretto <dbl>,
    ## #   grenadine <dbl>, apple_brandy <dbl>, brandy <dbl>, gin <dbl>,
    ## #   anisette <dbl>, dry_vermouth <dbl>, apricot_flavored_brandy <dbl>,
    ## #   bitters <dbl>, straight_rye_whiskey <dbl>, benedictine <dbl>,
    ## #   egg_white <dbl>, half_and_half <dbl>, vodka <dbl>, grapefruit_juice <dbl>,
    ## #   blended_scotch_whiskey <dbl>, port <dbl>, white_creme_de_cacao <dbl>,
…
``` r
# Tidy the Step 3.1
# 2 means "tidy the second 'step_' of our recipe" (this is the PCA step)
tidied_pca <- tidy(pca_prep, 2)
```

``` r
# Tidy the Step 3.2
# 1 indicates normalization step
tidy(pca_prep, 1)
```

    ## # A tibble: 80 x 4
    ##    terms           statistic  value id             
    ##    <chr>           <chr>      <dbl> <chr>          
    ##  1 light_rum       mean      0.161  normalize_WNQqe
    ##  2 lemon_juice     mean      0.229  normalize_WNQqe
    ##  3 lime_juice      mean      0.138  normalize_WNQqe
    ##  4 sweet_vermouth  mean      0.0691 normalize_WNQqe
    ##  5 orange_juice    mean      0.185  normalize_WNQqe
    ##  6 powdered_sugar  mean      0.0891 normalize_WNQqe
    ##  7 dark_rum        mean      0.0454 normalize_WNQqe
    ##  8 cranberry_juice mean      0.0363 normalize_WNQqe
    ##  9 pineapple_juice mean      0.0608 normalize_WNQqe
    ## 10 bourbon_whiskey mean      0.0768 normalize_WNQqe
    ## # … with 70 more rows

`tidied_pca` is living in long format, so it’s slightly easier if we
pivot wider:

``` r
tidied_pca %>% select(-id) %>%
  pivot_wider(names_from = component, values_from = value)
```

    ## # A tibble: 40 x 41
    ##    terms     PC1     PC2      PC3      PC4     PC5     PC6      PC7      PC8
    ##    <chr>   <dbl>   <dbl>    <dbl>    <dbl>   <dbl>   <dbl>    <dbl>    <dbl>
    ##  1 ligh…  0.163  -0.112   0.152   -0.104    0.362  -0.0473  0.0708  -0.0489 
    ##  2 lemo… -0.0140 -0.265   0.232   -0.0555  -0.409  -0.304   0.0714   0.0134 
    ##  3 lime…  0.224  -0.136   0.188   -0.204    0.384   0.202  -0.160   -0.0596 
    ##  4 swee… -0.0661  0.375  -0.120    0.00427  0.0198 -0.124  -0.208   -0.00787
    ##  5 oran…  0.0308 -0.136  -0.0876   0.363    0.184  -0.320  -0.0209  -0.0252 
    ##  6 powd… -0.476  -0.327  -0.0759  -0.110    0.0456  0.160  -0.0818   0.0546 
    ##  7 dark…  0.124  -0.0356 -0.00767 -0.0975   0.129   0.0100 -0.137    0.171  
    ##  8 cran…  0.0954 -0.0703 -0.130    0.223   -0.0983  0.0845 -0.00567  0.235  
    ##  9 pine…  0.119  -0.0631  0.00113  0.195    0.239  -0.168  -0.0834   0.123  
    ## 10 bour…  0.0963 -0.0406 -0.0117  -0.0752  -0.160  -0.0488  0.137   -0.327  
    ## # … with 30 more rows, and 32 more variables: PC9 <dbl>, PC10 <dbl>,
    ## #   PC11 <dbl>, PC12 <dbl>, PC13 <dbl>, PC14 <dbl>, PC15 <dbl>, PC16 <dbl>,
    ## #   PC17 <dbl>, PC18 <dbl>, PC19 <dbl>, PC20 <dbl>, PC21 <dbl>, PC22 <dbl>,
    ## #   PC23 <dbl>, PC24 <dbl>, PC25 <dbl>, PC26 <dbl>, PC27 <dbl>, PC28 <dbl>,
    ## #   PC29 <dbl>, PC30 <dbl>, PC31 <dbl>, PC32 <dbl>, PC33 <dbl>, PC34 <dbl>,
    ## #   PC35 <dbl>, PC36 <dbl>, PC37 <dbl>, PC38 <dbl>, PC39 <dbl>, PC40 <dbl>
…
